{
  "type": "service_account",
  "project_id": "meta-be3a7",
  "private_key_id": "eb45be251a2c2c39392f1cf95964bea7f3e337a7",
  "private_key": "-----BEGIN PRIVATE KEY-----\nMIIEvgIBADANBgkqhkiG9w0BAQEFAASCBKgwggSkAgEAAoIBAQCCH/v8kqzwU3+z\nIzBEtWcIepYO3pCOJ+TgvA1gwgbYFbpVSO4jitrhExssUS+L6nswcfHy6LbDbgW0\nQmbYuy0cABsWdpbi+CePJT13Ti8riqIUHxQB7ytLHjBqAvWE16gkTJUvTyGBiZ+g\nk8lMJnQyf2BuiT/gDGBGdgvPHEn7MDnCrrDnEy2ut9ZqqM9jyGNUiXYjFW2V/5aJ\noggOKCx+y9DXlXPEsM86Aos5F5XF3bpu4o1HbjoGKWT0EauXLI1IQo+ogiwvwyba\nwA6ZuPJaYT55NkPpm+hNesZueZWNdsxS1527Oz9d1dCfhAcTKAIjLiXHqQENzQ44\nmUocS367AgMBAAECggEADwLyloYzRjxTwI5ALMUCoGNH+WoqogOvL0/yeSWZFYeY\nKeuScW485vdFzLyG8Cy6TnHuuBepsez44n1AkSMyxoaqmVJQANog8i4ZI7DU10CU\nhx64t6poQ6+1ZR13Rn58isd89Gq8Ek4WqLcz40GSaRrxvH6/7DBxUN+gaCG61Svm\neUyccL7y30mKwDxbo0ATC6c+wqrSDKJvrdpiWXxGbt7OahJfGb3nYynga3xf9HQa\nXZcr2Wu0o7G+r9ITCj3bv+p4IgwjkY+2e9PrxdetdtgnJ/OuOdcnGtP5wsCeR10X\niAEOpX66RwSV9lA4Ize0+1NP1jntS6aTAW6YDcAb+QKBgQC3UwLh9lUClXcO2l1b\nk0hE6diLWEjbMts7eqcy8oiGry8PLPDad9jE39I1zjsdVQOFx98kLNbPhk1j11SV\n8HUKlOygkR88V+5g+sWvXeuCP1N9jp4SVipCL9psJgs2c23Rbxol1yeQeX98iMll\nwYJoPH5YsCnfDetUCL/ncRMCuQKBgQC1tfHxDzQvHrlwZeo+eyG5N8W+fTSq66Ze\nQ/OysYS7SlSbk/bBN65fACDw/iSg6NnW3rqhTwWpq0Wm9RADTiRavHhz6EtvGY+p\nqwHIsv33U1v4ejfST0DtCVu7YuFKvEN+d5Ia8WNhfwPlgTrpQc46Bl6zUqiLB/7k\nfrkd/RsjEwKBgAMI98o/5sZlLRRs3xDODms9p90euA4Q+HoynKQGSeZY7iGFL/Od\n+lPAFN3ZLTdeGfHUDkiuCVxkL9HQVdEpqvZi4swBuw+nsQWgATfXCTgdzkcM3mcV\nUBvKaQZTVuou3QmTmk44EqqcqFSqexMZMgyBu+HCAN91fojkoDC3uYXZAoGBAI9s\nXNr4NSg8CAI/bvSCG8wlyV7hVIDUHyyoVeHlW+64bK+fylQXrvotD9MnxaF8KPUA\nOC66QK37Ea8GHu188BTuTeSupVu7wTkaUP4oyWw9z4oAba8B/y0ZBd6R3WEv19Yq\napf5j4eUyW6M4gLaffwuqvC/fWi/luCjZVnWPWUhAoGBAJ8x7NslgZKo/JYANNoi\nJ8tQYLoA2Syq98L4vc31UuzDr+2rnexb8D2xixQuFTjfm1yJdZzvYd3JP1WC5Jgb\n2GA6O8e5lqo6Z13mpsv4B6P8nnZ4IFcVZcKPuTHRh1iJ+TTmVV4p0TT/fya46SR/\nmSGDrvWUPbt74PmEUgcoudVg\n-----END PRIVATE KEY-----\n",
  "client_email": "firebase-adminsdk-v8wsb@meta-be3a7.iam.gserviceaccount.com",
  "client_id": "117699243962124709019",
  "auth_uri": "https://accounts.google.com/o/oauth2/auth",
  "token_uri": "https://oauth2.googleapis.com/token",
  "auth_provider_x509_cert_url": "https://www.googleapis.com/oauth2/v1/certs",
  "client_x509_cert_url": "https://www.googleapis.com/robot/v1/metadata/x509/firebase-adminsdk-v8wsb%40meta-be3a7.iam.gserviceaccount.com"
}
